[{
  "id": 1,
  "fecha": "9/10/2018",
  "importe": 8,
  "latitud": 40.9937071,
  "longitug": 22.8753674
}, {
  "id": 2,
  "fecha": "6/12/2019",
  "importe": 26,
  "latitud": 48.8588029,
  "longitug": 24.9968117
}, {
  "id": 3,
  "fecha": "12/25/2018",
  "importe": 82,
  "latitud": 60.6302526,
  "longitug": 28.7309501
}, {
  "id": 4,
  "fecha": "2/5/2019",
  "importe": 40,
  "latitud": 38.7933106,
  "longitug": 140.2234077
}, {
  "id": 5,
  "fecha": "2/17/2019",
  "importe": 88,
  "latitud": 20.7156807,
  "longitug": -77.9938497
}, {
  "id": 6,
  "fecha": "2/15/2019",
  "importe": 19,
  "latitud": 58.1348867,
  "longitug": 8.006095
}, {
  "id": 7,
  "fecha": "6/24/2019",
  "importe": 63,
  "latitud": 40.8762849,
  "longitug": 49.0273549
}, {
  "id": 8,
  "fecha": "10/11/2018",
  "importe": 15,
  "latitud": 24.4623104,
  "longitug": 118.0801092
}, {
  "id": 9,
  "fecha": "6/9/2019",
  "importe": 95,
  "latitud": -21.3407385,
  "longitug": -47.7352517
}, {
  "id": 10,
  "fecha": "5/26/2019",
  "importe": 32,
  "latitud": 36.8653194,
  "longitug": -76.0507949
}]
